%YAML 1.1
%TAG !u! tag:unity3d.com,2011:
--- !u!21 &2100000
Material:
  serializedVersion: 6
  m_ObjectHideFlags: 0
  m_CorrespondingSourceObject: {fileID: 0}
  m_PrefabInstance: {fileID: 0}
  m_PrefabAsset: {fileID: 0}
  m_Name: Clouds
  m_Shader: {fileID: 4800000, guid: 184593afc3724ae8a3125b378c12e085, type: 3}
  m_ShaderKeywords: DSKY_CLOUD_2
  m_LightmapFlags: 4
  m_EnableInstancingVariants: 0
  m_DoubleSidedGI: 0
  m_CustomRenderQueue: 2501
  stringTagMap: {}
  disabledShaderPasses: []
  m_SavedProperties:
    serializedVersion: 3
    m_TexEnvs:
    - _BumpMap:
        m_Texture: {fileID: 2800000, guid: 7ba0fa09853e3e0489129fecd81480df, type: 3}
        m_Scale: {x: 1, y: 1}
        m_Offset: {x: 5.03, y: -86.7}
    - _Detail:
        m_Texture: {fileID: 2800000, guid: 9966f84e550342518100b3e9d3813bc8, type: 3}
        m_Scale: {x: 2, y: 2}
        m_Offset: {x: 0, y: 0}
    - _DetailAlbedoMap:
        m_Texture: {fileID: 0}
        m_Scale: {x: 1, y: 1}
        m_Offset: {x: 0, y: 0}
    - _DetailMask:
        m_Texture: {fileID: 0}
        m_Scale: {x: 1, y: 1}
        m_Offset: {x: 0, y: 0}
    - _DetailNormalMap:
        m_Texture: {fileID: 0}
        m_Scale: {x: 1, y: 1}
        m_Offset: {x: 0, y: 0}
    - _DetailTex:
        m_Texture: {fileID: 2800000, guid: 1f4ee9ebadb64209bd1c12af20285b15, type: 3}
        m_Scale: {x: 3, y: 3}
        m_Offset: {x: 0, y: 0}
    - _DetailTexA:
        m_Texture: {fileID: 2800000, guid: 0198a6b19d42b6748b040e79b25a93f4, type: 3}
        m_Scale: {x: 4, y: 4}
        m_Offset: {x: -13.6, y: -18.2}
    - _DetailTexB:
        m_Texture: {fileID: 2800000, guid: 1f4ee9ebadb64209bd1c12af20285b15, type: 3}
        m_Scale: {x: 5, y: 5}
        m_Offset: {x: -2.74, y: -13.58}
    - _EmissionMap:
        m_Texture: {fileID: 0}
        m_Scale: {x: 1, y: 1}
        m_Offset: {x: 0, y: 0}
    - _MainTex:
        m_Texture: {fileID: 2800000, guid: 91dec5af9b6347a8b53f5da58e738a44, type: 3}
        m_Scale: {x: 2, y: 2}
        m_Offset: {x: 0, y: 0}
    - _MetallicGlossMap:
        m_Texture: {fileID: 0}
        m_Scale: {x: 1, y: 1}
        m_Offset: {x: 0, y: 0}
    - _MyTexture1:
        m_Texture: {fileID: 2800000, guid: 0198a6b19d42b6748b040e79b25a93f4, type: 3}
        m_Scale: {x: 1, y: 1}
        m_Offset: {x: 0, y: 0}
    - _MyTexture2:
        m_Texture: {fileID: 2800000, guid: 1f4ee9ebadb64209bd1c12af20285b15, type: 3}
        m_Scale: {x: 1, y: 1}
        m_Offset: {x: 0, y: 0}
    - _MyTexture3:
        m_Texture: {fileID: 2800000, guid: af1ccbf236f377541999835b0d22aca1, type: 3}
        m_Scale: {x: 1, y: 1}
        m_Offset: {x: 0, y: 0}
    - _NoiseTex:
        m_Texture: {fileID: 2800000, guid: 46193306a54f5484aa77cf09625d3599, type: 3}
        m_Scale: {x: 1, y: 1}
        m_Offset: {x: 0, y: 0}
    - _OcclusionMap:
        m_Texture: {fileID: 2800000, guid: 0198a6b19d42b6748b040e79b25a93f4, type: 3}
        m_Scale: {x: 1, y: 1}
        m_Offset: {x: 0, y: 0}
    - _ParallaxMap:
        m_Texture: {fileID: 2800000, guid: 1f4ee9ebadb64209bd1c12af20285b15, type: 3}
        m_Scale: {x: 1, y: 1}
        m_Offset: {x: 0, y: 0}
    - _Texture1:
        m_Texture: {fileID: 2800000, guid: 9966f84e550342518100b3e9d3813bc8, type: 3}
        m_Scale: {x: 5, y: 5}
        m_Offset: {x: 0, y: 0}
    - _Texture2:
        m_Texture: {fileID: 2800000, guid: 91dec5af9b6347a8b53f5da58e738a44, type: 3}
        m_Scale: {x: 7, y: 7}
        m_Offset: {x: 0, y: 0}
    - _Texture3:
        m_Texture: {fileID: 2800000, guid: 1f4ee9ebadb64209bd1c12af20285b15, type: 3}
        m_Scale: {x: 1.7, y: 1.7}
        m_Offset: {x: 0, y: 0}
    - _TextureB:
        m_Texture: {fileID: 0}
        m_Scale: {x: 1, y: 1}
        m_Offset: {x: 0, y: 0}
    - _TextureG:
        m_Texture: {fileID: 0}
        m_Scale: {x: 1, y: 1}
        m_Offset: {x: 0, y: 0}
    - _TextureR:
        m_Texture: {fileID: 0}
        m_Scale: {x: 1, y: 1}
        m_Offset: {x: 0, y: 0}
    m_Floats:
    - _BumpScale: 1
    - _Cutoff: 0.5
    - _Cycle: 30
    - _DetailNormalMapScale: 1
    - _Distance: 0
    - _DstBlend: 0
    - _Fluffiness: 0.58
    - _GlossMapScale: 1
    - _Glossiness: 0.5
    - _GlossyReflections: 1
    - _IntensityB: -0.5
    - _IntensityG: 1.5
    - _IntensityInput: 0.63
    - _IntensityOutput: 1
    - _IntensityR: 1.5
    - _IntensityT1: 0.96
    - _IntensityT2: 0.95
    - _IntensityT3: 7.71
    - _IntensityTAll: 1.6
    - _Level0: 0
    - _Level1: 10
    - _Metallic: 0
    - _Mode: 0
    - _OcclusionStrength: 1
    - _Parallax: -0.2
    - _Shininess: 0.01
    - _SmoothnessTextureChannel: 0
    - _SpecularHighlights: 1
    - _Speed: 0.1
    - _SpeedX: 0
    - _SpeedY: 15
    - _SrcBlend: 1
    - _TextureUv1: 5
    - _TextureUv2: 7
    - _TextureUv3: 1.7
    - _TextureUvB: 1
    - _TextureUvG: 1
    - _TextureUvR: 1
    - _Tiling: 1
    - _UVSec: 0
    - _VectorX1: 0.7
    - _VectorX2: 1.2
    - _VectorX3: -0.5
    - _VectorY1: 1.2
    - _VectorY2: 0.7
    - _VectorY3: -0.5
    - _ZWrite: 1
    m_Colors:
    - _Color: {r: 512, g: 512, b: 512, a: 0.14901961}
    - _Emission: {r: 0, g: 0, b: 0, a: 0}
    - _EmissionColor: {r: 0, g: 0, b: 0, a: 1}
    - _Level0Color: {r: 0.37, g: 0.78, b: 0.92, a: 1}
    - _Level1Color: {r: 0.65, g: 0.86, b: 0.63, a: 1}
    - _SpecColor: {r: 0, g: 0, b: 0, a: 0}
    - _TextureV1: {r: 0.7, g: 1.2, b: 0, a: 0}
    - _TextureV2: {r: 1.2, g: 0.7, b: 0, a: 0}
    - _TextureV3: {r: -0.5, g: -0.5, b: 0, a: 0}
    - _TextureVB: {r: -1, g: -1, b: 0, a: 0}
    - _TextureVG: {r: 1.3, g: 1.2, b: 0, a: 0}
    - _TextureVR: {r: 0.9, g: 1, b: 0, a: 0}
    - _Tint: {r: 0.58823526, g: 0.58823526, b: 0.58823526, a: 1}
