%YAML 1.1
%TAG !u! tag:unity3d.com,2011:
--- !u!1 &3794098971506041357
GameObject:
  m_ObjectHideFlags: 0
  m_CorrespondingSourceObject: {fileID: 0}
  m_PrefabInstance: {fileID: 0}
  m_PrefabAsset: {fileID: 0}
  serializedVersion: 6
  m_Component:
  - component: {fileID: 8816710161373549604}
  - component: {fileID: 5066899062528406935}
  - component: {fileID: 3261170407850307277}
  - component: {fileID: 5773261810218080222}
  m_Layer: 8
  m_Name: Garbage
  m_TagString: Untagged
  m_Icon: {fileID: 0}
  m_NavMeshLayer: 0
  m_StaticEditorFlags: 0
  m_IsActive: 1
--- !u!4 &8816710161373549604
Transform:
  m_ObjectHideFlags: 0
  m_CorrespondingSourceObject: {fileID: 0}
  m_PrefabInstance: {fileID: 0}
  m_PrefabAsset: {fileID: 0}
  m_GameObject: {fileID: 3794098971506041357}
  m_LocalRotation: {x: 0, y: 0, z: 0, w: 1}
  m_LocalPosition: {x: 0, y: 0, z: 0}
  m_LocalScale: {x: 1, y: 1, z: 1}
  m_Children:
  - {fileID: 1283580797975802053}
  m_Father: {fileID: 0}
  m_RootOrder: 0
  m_LocalEulerAnglesHint: {x: 0, y: 0, z: 0}
--- !u!33 &5066899062528406935
MeshFilter:
  m_ObjectHideFlags: 0
  m_CorrespondingSourceObject: {fileID: 0}
  m_PrefabInstance: {fileID: 0}
  m_PrefabAsset: {fileID: 0}
  m_GameObject: {fileID: 3794098971506041357}
  m_Mesh: {fileID: 10202, guid: 0000000000000000e000000000000000, type: 0}
--- !u!23 &3261170407850307277
MeshRenderer:
  m_ObjectHideFlags: 0
  m_CorrespondingSourceObject: {fileID: 0}
  m_PrefabInstance: {fileID: 0}
  m_PrefabAsset: {fileID: 0}
  m_GameObject: {fileID: 3794098971506041357}
  m_Enabled: 0
  m_CastShadows: 1
  m_ReceiveShadows: 1
  m_DynamicOccludee: 1
  m_MotionVectors: 1
  m_LightProbeUsage: 1
  m_ReflectionProbeUsage: 1
  m_RayTracingMode: 2
  m_RenderingLayerMask: 1
  m_RendererPriority: 0
  m_Materials:
  - {fileID: 10303, guid: 0000000000000000f000000000000000, type: 0}
  m_StaticBatchInfo:
    firstSubMesh: 0
    subMeshCount: 0
  m_StaticBatchRoot: {fileID: 0}
  m_ProbeAnchor: {fileID: 0}
  m_LightProbeVolumeOverride: {fileID: 0}
  m_ScaleInLightmap: 1
  m_ReceiveGI: 1
  m_PreserveUVs: 0
  m_IgnoreNormalsForChartDetection: 0
  m_ImportantGI: 0
  m_StitchLightmapSeams: 1
  m_SelectedEditorRenderState: 3
  m_MinimumChartSize: 4
  m_AutoUVMaxDistance: 0.5
  m_AutoUVMaxAngle: 89
  m_LightmapParameters: {fileID: 0}
  m_SortingLayerID: 0
  m_SortingLayer: 0
  m_SortingOrder: 0
--- !u!65 &5773261810218080222
BoxCollider:
  m_ObjectHideFlags: 0
  m_CorrespondingSourceObject: {fileID: 0}
  m_PrefabInstance: {fileID: 0}
  m_PrefabAsset: {fileID: 0}
  m_GameObject: {fileID: 3794098971506041357}
  m_Material: {fileID: 0}
  m_IsTrigger: 0
  m_Enabled: 1
  serializedVersion: 2
  m_Size: {x: 0.5, y: 1, z: 0.5}
  m_Center: {x: 0, y: 0, z: 0}
--- !u!1001 &640139820512364169
PrefabInstance:
  m_ObjectHideFlags: 0
  serializedVersion: 2
  m_Modification:
    m_TransformParent: {fileID: 8816710161373549604}
    m_Modifications:
    - target: {fileID: 1133880154866962569, guid: 82bb98a136f68344cb5fa41cca6f7ab7,
        type: 3}
      propertyPath: m_Name
      value: Bottle3
      objectReference: {fileID: 0}
    - target: {fileID: 1815524771797202508, guid: 82bb98a136f68344cb5fa41cca6f7ab7,
        type: 3}
      propertyPath: m_LocalPosition.x
      value: 0
      objectReference: {fileID: 0}
    - target: {fileID: 1815524771797202508, guid: 82bb98a136f68344cb5fa41cca6f7ab7,
        type: 3}
      propertyPath: m_LocalPosition.y
      value: -0.489
      objectReference: {fileID: 0}
    - target: {fileID: 1815524771797202508, guid: 82bb98a136f68344cb5fa41cca6f7ab7,
        type: 3}
      propertyPath: m_LocalPosition.z
      value: 0
      objectReference: {fileID: 0}
    - target: {fileID: 1815524771797202508, guid: 82bb98a136f68344cb5fa41cca6f7ab7,
        type: 3}
      propertyPath: m_LocalRotation.x
      value: 0
      objectReference: {fileID: 0}
    - target: {fileID: 1815524771797202508, guid: 82bb98a136f68344cb5fa41cca6f7ab7,
        type: 3}
      propertyPath: m_LocalRotation.y
      value: 0
      objectReference: {fileID: 0}
    - target: {fileID: 1815524771797202508, guid: 82bb98a136f68344cb5fa41cca6f7ab7,
        type: 3}
      propertyPath: m_LocalRotation.z
      value: 0
      objectReference: {fileID: 0}
    - target: {fileID: 1815524771797202508, guid: 82bb98a136f68344cb5fa41cca6f7ab7,
        type: 3}
      propertyPath: m_LocalRotation.w
      value: 1
      objectReference: {fileID: 0}
    - target: {fileID: 1815524771797202508, guid: 82bb98a136f68344cb5fa41cca6f7ab7,
        type: 3}
      propertyPath: m_RootOrder
      value: 0
      objectReference: {fileID: 0}
    - target: {fileID: 1815524771797202508, guid: 82bb98a136f68344cb5fa41cca6f7ab7,
        type: 3}
      propertyPath: m_LocalEulerAnglesHint.x
      value: 0
      objectReference: {fileID: 0}
    - target: {fileID: 1815524771797202508, guid: 82bb98a136f68344cb5fa41cca6f7ab7,
        type: 3}
      propertyPath: m_LocalEulerAnglesHint.y
      value: 0
      objectReference: {fileID: 0}
    - target: {fileID: 1815524771797202508, guid: 82bb98a136f68344cb5fa41cca6f7ab7,
        type: 3}
      propertyPath: m_LocalEulerAnglesHint.z
      value: 0
      objectReference: {fileID: 0}
    - target: {fileID: 1815524771797202508, guid: 82bb98a136f68344cb5fa41cca6f7ab7,
        type: 3}
      propertyPath: m_LocalScale.x
      value: 1
      objectReference: {fileID: 0}
    - target: {fileID: 1815524771797202508, guid: 82bb98a136f68344cb5fa41cca6f7ab7,
        type: 3}
      propertyPath: m_LocalScale.y
      value: 1
      objectReference: {fileID: 0}
    - target: {fileID: 1815524771797202508, guid: 82bb98a136f68344cb5fa41cca6f7ab7,
        type: 3}
      propertyPath: m_LocalScale.z
      value: 1
      objectReference: {fileID: 0}
    m_RemovedComponents:
    - {fileID: 415183416717210882, guid: 82bb98a136f68344cb5fa41cca6f7ab7, type: 3}
  m_SourcePrefab: {fileID: 100100000, guid: 82bb98a136f68344cb5fa41cca6f7ab7, type: 3}
--- !u!4 &1283580797975802053 stripped
Transform:
  m_CorrespondingSourceObject: {fileID: 1815524771797202508, guid: 82bb98a136f68344cb5fa41cca6f7ab7,
    type: 3}
  m_PrefabInstance: {fileID: 640139820512364169}
  m_PrefabAsset: {fileID: 0}
