%YAML 1.1
%TAG !u! tag:unity3d.com,2011:
--- !u!1 &470390426
GameObject:
  m_ObjectHideFlags: 0
  m_CorrespondingSourceObject: {fileID: 0}
  m_PrefabInstance: {fileID: 0}
  m_PrefabAsset: {fileID: 0}
  serializedVersion: 6
  m_Component:
  - component: {fileID: 470390427}
  - component: {fileID: 470390429}
  - component: {fileID: 470390428}
  m_Layer: 5
  m_Name: Image
  m_TagString: Untagged
  m_Icon: {fileID: 0}
  m_NavMeshLayer: 0
  m_StaticEditorFlags: 0
  m_IsActive: 1
--- !u!224 &470390427
RectTransform:
  m_ObjectHideFlags: 0
  m_CorrespondingSourceObject: {fileID: 0}
  m_PrefabInstance: {fileID: 0}
  m_PrefabAsset: {fileID: 0}
  m_GameObject: {fileID: 470390426}
  m_LocalRotation: {x: -0, y: 1, z: -0, w: 0}
  m_LocalPosition: {x: 0, y: 0, z: 0}
  m_LocalScale: {x: 0.9092188, y: 0.9092188, z: 0.9092188}
  m_Children: []
  m_Father: {fileID: 771054366}
  m_RootOrder: 0
  m_LocalEulerAnglesHint: {x: 0, y: 180, z: 0}
  m_AnchorMin: {x: 0.5, y: 0.5}
  m_AnchorMax: {x: 0.5, y: 0.5}
  m_AnchoredPosition: {x: 0, y: 0}
  m_SizeDelta: {x: 6, y: 2}
  m_Pivot: {x: 0.5, y: 0.5}
--- !u!222 &470390429
CanvasRenderer:
  m_ObjectHideFlags: 0
  m_CorrespondingSourceObject: {fileID: 0}
  m_PrefabInstance: {fileID: 0}
  m_PrefabAsset: {fileID: 0}
  m_GameObject: {fileID: 470390426}
  m_CullTransparentMesh: 0
--- !u!114 &470390428
MonoBehaviour:
  m_ObjectHideFlags: 0
  m_CorrespondingSourceObject: {fileID: 0}
  m_PrefabInstance: {fileID: 0}
  m_PrefabAsset: {fileID: 0}
  m_GameObject: {fileID: 470390426}
  m_Enabled: 1
  m_EditorHideFlags: 0
  m_Script: {fileID: 11500000, guid: fe87c0e1cc204ed48ad3b37840f39efc, type: 3}
  m_Name: 
  m_EditorClassIdentifier: 
  m_Material: {fileID: 0}
  m_Color: {r: 1, g: 1, b: 1, a: 1}
  m_RaycastTarget: 1
  m_Maskable: 1
  m_OnCullStateChanged:
    m_PersistentCalls:
      m_Calls: []
  m_Sprite: {fileID: 21300000, guid: 70426860b1630f74c9527ed9c3c30a21, type: 3}
  m_Type: 0
  m_PreserveAspect: 0
  m_FillCenter: 1
  m_FillMethod: 4
  m_FillAmount: 1
  m_FillClockwise: 1
  m_FillOrigin: 0
  m_UseSpriteMesh: 0
  m_PixelsPerUnitMultiplier: 1
--- !u!1 &771054365
GameObject:
  m_ObjectHideFlags: 0
  m_CorrespondingSourceObject: {fileID: 0}
  m_PrefabInstance: {fileID: 0}
  m_PrefabAsset: {fileID: 0}
  serializedVersion: 6
  m_Component:
  - component: {fileID: 771054366}
  - component: {fileID: 771054369}
  - component: {fileID: 771054368}
  - component: {fileID: 771054367}
  m_Layer: 5
  m_Name: Canvas (1)
  m_TagString: Untagged
  m_Icon: {fileID: 0}
  m_NavMeshLayer: 0
  m_StaticEditorFlags: 0
  m_IsActive: 1
--- !u!224 &771054366
RectTransform:
  m_ObjectHideFlags: 0
  m_CorrespondingSourceObject: {fileID: 0}
  m_PrefabInstance: {fileID: 0}
  m_PrefabAsset: {fileID: 0}
  m_GameObject: {fileID: 771054365}
  m_LocalRotation: {x: -0, y: -0, z: -0, w: 1}
  m_LocalPosition: {x: 0, y: 0, z: 0}
  m_LocalScale: {x: 1.0599855, y: 1.0599855, z: 1.0599855}
  m_Children:
  - {fileID: 470390427}
  m_Father: {fileID: 5425323849499181863}
  m_RootOrder: 4
  m_LocalEulerAnglesHint: {x: 0, y: 0, z: 0}
  m_AnchorMin: {x: 0, y: 0}
  m_AnchorMax: {x: 0, y: 0}
  m_AnchoredPosition: {x: 3.1, y: 0.98}
  m_SizeDelta: {x: 756, y: 425}
  m_Pivot: {x: 0.5, y: 0.5}
--- !u!223 &771054369
Canvas:
  m_ObjectHideFlags: 0
  m_CorrespondingSourceObject: {fileID: 0}
  m_PrefabInstance: {fileID: 0}
  m_PrefabAsset: {fileID: 0}
  m_GameObject: {fileID: 771054365}
  m_Enabled: 1
  serializedVersion: 3
  m_RenderMode: 0
  m_Camera: {fileID: 0}
  m_PlaneDistance: 100
  m_PixelPerfect: 0
  m_ReceivesEvents: 1
  m_OverrideSorting: 1
  m_OverridePixelPerfect: 0
  m_SortingBucketNormalizedSize: 0
  m_AdditionalShaderChannelsFlag: 0
  m_SortingLayerID: 0
  m_SortingOrder: 0
  m_TargetDisplay: 0
--- !u!114 &771054368
MonoBehaviour:
  m_ObjectHideFlags: 0
  m_CorrespondingSourceObject: {fileID: 0}
  m_PrefabInstance: {fileID: 0}
  m_PrefabAsset: {fileID: 0}
  m_GameObject: {fileID: 771054365}
  m_Enabled: 1
  m_EditorHideFlags: 0
  m_Script: {fileID: 11500000, guid: 0cd44c1031e13a943bb63640046fad76, type: 3}
  m_Name: 
  m_EditorClassIdentifier: 
  m_UiScaleMode: 0
  m_ReferencePixelsPerUnit: 100
  m_ScaleFactor: 1
  m_ReferenceResolution: {x: 800, y: 600}
  m_ScreenMatchMode: 0
  m_MatchWidthOrHeight: 0
  m_PhysicalUnit: 3
  m_FallbackScreenDPI: 96
  m_DefaultSpriteDPI: 96
  m_DynamicPixelsPerUnit: 1
--- !u!114 &771054367
MonoBehaviour:
  m_ObjectHideFlags: 0
  m_CorrespondingSourceObject: {fileID: 0}
  m_PrefabInstance: {fileID: 0}
  m_PrefabAsset: {fileID: 0}
  m_GameObject: {fileID: 771054365}
  m_Enabled: 1
  m_EditorHideFlags: 0
  m_Script: {fileID: 11500000, guid: dc42784cf147c0c48a680349fa168899, type: 3}
  m_Name: 
  m_EditorClassIdentifier: 
  m_IgnoreReversedGraphics: 1
  m_BlockingObjects: 0
  m_BlockingMask:
    serializedVersion: 2
    m_Bits: 4294967295
--- !u!1001 &9094653810595005463
PrefabInstance:
  m_ObjectHideFlags: 0
  serializedVersion: 2
  m_Modification:
    m_TransformParent: {fileID: 0}
    m_Modifications:
    - target: {fileID: 3854004030686926214, guid: d85d9dea3017da14d8aba35f266dd11b,
        type: 3}
      propertyPath: m_Camera
      value: 
      objectReference: {fileID: 0}
    - target: {fileID: 3854004030690932408, guid: d85d9dea3017da14d8aba35f266dd11b,
        type: 3}
      propertyPath: m_Camera
      value: 
      objectReference: {fileID: 0}
    - target: {fileID: 3854004030769355784, guid: d85d9dea3017da14d8aba35f266dd11b,
        type: 3}
      propertyPath: m_AnchoredPosition.x
      value: 0.17
      objectReference: {fileID: 0}
    - target: {fileID: 3854004030769355784, guid: d85d9dea3017da14d8aba35f266dd11b,
        type: 3}
      propertyPath: m_AnchoredPosition.y
      value: -0.19
      objectReference: {fileID: 0}
    - target: {fileID: 3854004030769355784, guid: d85d9dea3017da14d8aba35f266dd11b,
        type: 3}
      propertyPath: m_LocalPosition.z
      value: 0.001
      objectReference: {fileID: 0}
    - target: {fileID: 3854004030769355784, guid: d85d9dea3017da14d8aba35f266dd11b,
        type: 3}
      propertyPath: m_LocalScale.x
      value: 0.07345718
      objectReference: {fileID: 0}
    - target: {fileID: 3854004030769355784, guid: d85d9dea3017da14d8aba35f266dd11b,
        type: 3}
      propertyPath: m_LocalScale.y
      value: 0.01630279
      objectReference: {fileID: 0}
    - target: {fileID: 3854004031375555277, guid: d85d9dea3017da14d8aba35f266dd11b,
        type: 3}
      propertyPath: m_LocalPosition.x
      value: 0
      objectReference: {fileID: 0}
    - target: {fileID: 3854004031375555277, guid: d85d9dea3017da14d8aba35f266dd11b,
        type: 3}
      propertyPath: m_LocalPosition.y
      value: 0
      objectReference: {fileID: 0}
    - target: {fileID: 3854004031375555277, guid: d85d9dea3017da14d8aba35f266dd11b,
        type: 3}
      propertyPath: m_LocalPosition.z
      value: 0
      objectReference: {fileID: 0}
    - target: {fileID: 3854004031375555277, guid: d85d9dea3017da14d8aba35f266dd11b,
        type: 3}
      propertyPath: m_LocalRotation.x
      value: -0
      objectReference: {fileID: 0}
    - target: {fileID: 3854004031375555277, guid: d85d9dea3017da14d8aba35f266dd11b,
        type: 3}
      propertyPath: m_LocalRotation.y
      value: -0
      objectReference: {fileID: 0}
    - target: {fileID: 3854004031375555277, guid: d85d9dea3017da14d8aba35f266dd11b,
        type: 3}
      propertyPath: m_LocalRotation.z
      value: -0
      objectReference: {fileID: 0}
    - target: {fileID: 3854004031375555277, guid: d85d9dea3017da14d8aba35f266dd11b,
        type: 3}
      propertyPath: m_LocalRotation.w
      value: 1
      objectReference: {fileID: 0}
    - target: {fileID: 3854004031375555277, guid: d85d9dea3017da14d8aba35f266dd11b,
        type: 3}
      propertyPath: m_RootOrder
      value: 0
      objectReference: {fileID: 0}
    - target: {fileID: 3854004031375555277, guid: d85d9dea3017da14d8aba35f266dd11b,
        type: 3}
      propertyPath: m_LocalEulerAnglesHint.x
      value: 0
      objectReference: {fileID: 0}
    - target: {fileID: 3854004031375555277, guid: d85d9dea3017da14d8aba35f266dd11b,
        type: 3}
      propertyPath: m_LocalEulerAnglesHint.y
      value: 0
      objectReference: {fileID: 0}
    - target: {fileID: 3854004031375555277, guid: d85d9dea3017da14d8aba35f266dd11b,
        type: 3}
      propertyPath: m_LocalEulerAnglesHint.z
      value: 0
      objectReference: {fileID: 0}
    - target: {fileID: 3854004031375555277, guid: d85d9dea3017da14d8aba35f266dd11b,
        type: 3}
      propertyPath: m_AnchoredPosition.x
      value: 0
      objectReference: {fileID: 0}
    - target: {fileID: 3854004031375555277, guid: d85d9dea3017da14d8aba35f266dd11b,
        type: 3}
      propertyPath: m_AnchoredPosition.y
      value: 0
      objectReference: {fileID: 0}
    - target: {fileID: 3854004031375555277, guid: d85d9dea3017da14d8aba35f266dd11b,
        type: 3}
      propertyPath: m_SizeDelta.x
      value: 5
      objectReference: {fileID: 0}
    - target: {fileID: 3854004031375555277, guid: d85d9dea3017da14d8aba35f266dd11b,
        type: 3}
      propertyPath: m_SizeDelta.y
      value: 2
      objectReference: {fileID: 0}
    - target: {fileID: 3854004031375555277, guid: d85d9dea3017da14d8aba35f266dd11b,
        type: 3}
      propertyPath: m_AnchorMin.x
      value: 0
      objectReference: {fileID: 0}
    - target: {fileID: 3854004031375555277, guid: d85d9dea3017da14d8aba35f266dd11b,
        type: 3}
      propertyPath: m_AnchorMin.y
      value: 0
      objectReference: {fileID: 0}
    - target: {fileID: 3854004031375555277, guid: d85d9dea3017da14d8aba35f266dd11b,
        type: 3}
      propertyPath: m_AnchorMax.x
      value: 0
      objectReference: {fileID: 0}
    - target: {fileID: 3854004031375555277, guid: d85d9dea3017da14d8aba35f266dd11b,
        type: 3}
      propertyPath: m_AnchorMax.y
      value: 0
      objectReference: {fileID: 0}
    - target: {fileID: 3854004031375555277, guid: d85d9dea3017da14d8aba35f266dd11b,
        type: 3}
      propertyPath: m_Pivot.x
      value: 0
      objectReference: {fileID: 0}
    - target: {fileID: 3854004031375555277, guid: d85d9dea3017da14d8aba35f266dd11b,
        type: 3}
      propertyPath: m_Pivot.y
      value: 0
      objectReference: {fileID: 0}
    - target: {fileID: 3854004031375555278, guid: d85d9dea3017da14d8aba35f266dd11b,
        type: 3}
      propertyPath: m_Camera
      value: 
      objectReference: {fileID: 0}
    - target: {fileID: 3854004031375555282, guid: d85d9dea3017da14d8aba35f266dd11b,
        type: 3}
      propertyPath: m_Name
      value: brPlate Variant
      objectReference: {fileID: 0}
    - target: {fileID: 3854004032086574893, guid: d85d9dea3017da14d8aba35f266dd11b,
        type: 3}
      propertyPath: m_AdditionalShaderChannelsFlag
      value: 25
      objectReference: {fileID: 0}
    - target: {fileID: 3854004032086574893, guid: d85d9dea3017da14d8aba35f266dd11b,
        type: 3}
      propertyPath: m_Camera
      value: 
      objectReference: {fileID: 0}
    - target: {fileID: 3854004032086574896, guid: d85d9dea3017da14d8aba35f266dd11b,
        type: 3}
      propertyPath: m_LocalScale.x
      value: 0.71142
      objectReference: {fileID: 0}
    - target: {fileID: 3854004032086574896, guid: d85d9dea3017da14d8aba35f266dd11b,
        type: 3}
      propertyPath: m_LocalScale.y
      value: 0.71142
      objectReference: {fileID: 0}
    - target: {fileID: 3854004032086574896, guid: d85d9dea3017da14d8aba35f266dd11b,
        type: 3}
      propertyPath: m_LocalScale.z
      value: 0.71142
      objectReference: {fileID: 0}
    - target: {fileID: 3854004032096353977, guid: d85d9dea3017da14d8aba35f266dd11b,
        type: 3}
      propertyPath: m_IsActive
      value: 0
      objectReference: {fileID: 0}
    m_RemovedComponents: []
  m_SourcePrefab: {fileID: 100100000, guid: d85d9dea3017da14d8aba35f266dd11b, type: 3}
--- !u!224 &5425323849499181863 stripped
RectTransform:
  m_CorrespondingSourceObject: {fileID: 3854004032086574896, guid: d85d9dea3017da14d8aba35f266dd11b,
    type: 3}
  m_PrefabInstance: {fileID: 9094653810595005463}
  m_PrefabAsset: {fileID: 0}
